sagemaker • sagemaker
…
sagemaker::abalone
#> # A tibble: 4,177 x 11
#>    rings length diameter height whole_weight shucked_weight viscera_weight
#>    <dbl>  <dbl>    <dbl>  <dbl>        <dbl>          <dbl>          <dbl>
#>  1    15  0.455    0.365  0.095        0.514         0.224          0.101 
#>  2     7  0.35     0.265  0.09         0.226         0.0995         0.0485
#>  3     9  0.53     0.42   0.135        0.677         0.256          0.142 
#>  4    10  0.44     0.365  0.125        0.516         0.216          0.114 
#>  5     7  0.33     0.255  0.08         0.205         0.0895         0.0395
#>  6     8  0.425    0.3    0.095        0.352         0.141          0.0775
#>  7    20  0.53     0.415  0.15         0.778         0.237          0.142 
#>  8    16  0.545    0.425  0.125        0.768         0.294          0.150 
#>  9     9  0.475    0.37   0.125        0.509         0.216          0.112 
#> 10    19  0.55     0.44   0.15         0.894         0.314          0.151 
#> # … with 4,167 more rows, and 4 more variables: shell_weight <dbl>,
#> #   sex_F <dbl>, sex_I <dbl>, sex_M <dbl>
…
Training

We can also see the individual jobs logs, to track the difference between the train/validation set. This might be useful for advanced model tuning.

Note that tune$model_name is the name of the best model found during training.

job_logs <- sagemaker_training_job_logs(tune$model_name)
job_logs
#> # A tibble: 98 x 3
#>    iteration `train:rmse` `validation:rmse`
#>        <dbl>        <dbl>             <dbl>
#>  1         0         9.04              9.06
#>  2         1         8.21              8.24
#>  3         2         7.47              7.50
#>  4         3         6.80              6.84
#>  5         4         6.21              6.25
#>  6         5         5.67              5.72
#>  7         6         5.20              5.26
#>  8         7         4.78              4.85
#>  9         8         4.40              4.49
#> 10         9         4.07              4.18
#> # … with 88 more rows
…
